{
	"id": "893df796-736e-438a-bc4f-20b73a74bd71",
	"name": "coworking",
	"values": [
		{
			"key": "token_coworking",
			"value": "Bearer eyJhbGciOiJIUzUxMiJ9.eyJzdWIiOiJhZG1pbiIsImV4cCI6MTU1NTE1MTYzN30.lNq2Za0p8177kEwWKsPMe8XqbFPnip2X2i3xqEW06ECy3WdekbLhZ8tvVvN7LTgaANGblf_lAlXpvMSQzLbWwA",
			"description": "",
			"enabled": true
		}
	],
	"_postman_variable_scope": "environment",
	"_postman_exported_at": "2019-04-03T11:43:44.337Z",
	"_postman_exported_using": "Postman/7.0.6"
}