{
	"id": "28431ec0-bc1d-4118-8754-9d42c999d1f5",
	"values": [
		{
			"key": "token1",
			"value": "eyJhbGciOiJIUzUxMiJ9.eyJzdWIiOiJhZG1pbiIsImV4cCI6MTU1NDY0MDM5Nn0.NigUmWGQg7n8wP1HTxx2nPP4QHjq4bEVNWZ2MkyjWYsG2zfvXZfcF6dLQIHwSMzEkMUxh0L7U9_fGAgjJmr5Eg",
			"description": "",
			"enabled": true
		},
		{
			"key": "token_coworking",
			"value": "Bearer eyJhbGciOiJIUzUxMiJ9.eyJzdWIiOiJhZG1pbiIsImV4cCI6MTU1NTE1MTYzN30.lNq2Za0p8177kEwWKsPMe8XqbFPnip2X2i3xqEW06ECy3WdekbLhZ8tvVvN7LTgaANGblf_lAlXpvMSQzLbWwA",
			"description": "",
			"enabled": true
		}
	],
	"name": "My Workspace Globals",
	"_postman_variable_scope": "globals",
	"_postman_exported_at": "2019-04-03T11:46:18.459Z",
	"_postman_exported_using": "Postman/7.0.6"
}