{
	"info": {
		"_postman_id": "8aebd833-9678-4e87-b028-0387968edf23",
		"name": "coworking",
		"schema": "https://schema.getpostman.com/json/collection/v2.1.0/collection.json"
	},
	"item": [
		{
			"name": "TipoContato - delete e put",
			"item": [
				{
					"name": "novo tipo contato Copy",
					"request": {
						"method": "POST",
						"header": [
							{
								"key": "Content-Type",
								"name": "Content-Type",
								"value": "application/json",
								"type": "text"
							}
						],
						"body": {
							"mode": "raw",
							"raw": "{\n    \"nome\": \"email\"\n}"
						},
						"url": {
							"raw": "http://localhost:8081/api/tipocontato/novo",
							"protocol": "http",
							"host": [
								"localhost"
							],
							"port": "8081",
							"path": [
								"api",
								"tipocontato",
								"novo"
							]
						}
					},
					"response": []
				},
				{
					"name": "editar  tipo contato",
					"request": {
						"method": "PUT",
						"header": [
							{
								"key": "Content-Type",
								"name": "Content-Type",
								"value": "application/json",
								"type": "text"
							}
						],
						"body": {
							"mode": "raw",
							"raw": "{\n    \"nome\": \"celular\"\n}"
						},
						"url": {
							"raw": "http://localhost:8081/api/tipocontato/editar/3",
							"protocol": "http",
							"host": [
								"localhost"
							],
							"port": "8081",
							"path": [
								"api",
								"tipocontato",
								"editar",
								"3"
							]
						}
					},
					"response": []
				},
				{
					"name": "deletar tipo contato",
					"request": {
						"method": "DELETE",
						"header": [
							{
								"key": "Content-Type",
								"name": "Content-Type",
								"value": "application/json",
								"type": "text"
							}
						],
						"body": {
							"mode": "raw",
							"raw": ""
						},
						"url": {
							"raw": "http://localhost:8081/api/tipocontato/deletar/1",
							"protocol": "http",
							"host": [
								"localhost"
							],
							"port": "8081",
							"path": [
								"api",
								"tipocontato",
								"deletar",
								"1"
							]
						}
					},
					"response": []
				}
			]
		},
		{
			"name": "Contato - delete/put",
			"item": [
				{
					"name": "novo tipo contato Copy",
					"request": {
						"method": "POST",
						"header": [
							{
								"key": "Content-Type",
								"name": "Content-Type",
								"value": "application/json",
								"type": "text"
							}
						],
						"body": {
							"mode": "raw",
							"raw": "{\n    \"nome\": \"celular comercial\"\n}"
						},
						"url": {
							"raw": "http://localhost:8081/api/tipocontato/novo",
							"protocol": "http",
							"host": [
								"localhost"
							],
							"port": "8081",
							"path": [
								"api",
								"tipocontato",
								"novo"
							]
						}
					},
					"response": []
				},
				{
					"name": "novo contato",
					"request": {
						"method": "POST",
						"header": [
							{
								"key": "Content-Type",
								"name": "Content-Type",
								"type": "text",
								"value": "application/json"
							}
						],
						"body": {
							"mode": "raw",
							"raw": "{\n\t\"valor\":\"333333333\",\n\t\"tipoContato\":{\n\t\t\"id\":\"2\"\n\t}\n}"
						},
						"url": {
							"raw": "http://localhost:8081/api/contato/novo",
							"protocol": "http",
							"host": [
								"localhost"
							],
							"port": "8081",
							"path": [
								"api",
								"contato",
								"novo"
							]
						}
					},
					"response": []
				},
				{
					"name": "editar  contato",
					"request": {
						"method": "PUT",
						"header": [
							{
								"key": "Content-Type",
								"name": "Content-Type",
								"type": "text",
								"value": "application/json"
							}
						],
						"body": {
							"mode": "raw",
							"raw": "{\n    \"id\": 1,\n    \"valor\": \"1311\",\n    \"tipoContato\": {\n        \"id\": 1\n    }\n}"
						},
						"url": {
							"raw": "http://localhost:8081/api/contato/editar/1",
							"protocol": "http",
							"host": [
								"localhost"
							],
							"port": "8081",
							"path": [
								"api",
								"contato",
								"editar",
								"1"
							]
						}
					},
					"response": []
				},
				{
					"name": "deletar contato",
					"request": {
						"method": "DELETE",
						"header": [
							{
								"key": "Content-Type",
								"name": "Content-Type",
								"type": "text",
								"value": "application/json"
							}
						],
						"body": {
							"mode": "raw",
							"raw": ""
						},
						"url": {
							"raw": "http://localhost:8081/api/contato/deletar/10",
							"protocol": "http",
							"host": [
								"localhost"
							],
							"port": "8081",
							"path": [
								"api",
								"contato",
								"deletar",
								"10"
							]
						}
					},
					"response": []
				}
			]
		},
		{
			"name": "login",
			"item": [
				{
					"name": "login",
					"event": [
						{
							"listen": "test",
							"script": {
								"id": "bb9e4a7d-0113-4de7-97f0-f6c4011010d5",
								"exec": [
									"pm.environment.set(\"token_coworking\",postman.getResponseHeader(\"Authorization\"))"
								],
								"type": "text/javascript"
							}
						}
					],
					"request": {
						"method": "POST",
						"header": [
							{
								"key": "Content-Type",
								"name": "Content-Type",
								"value": "application/json",
								"type": "text"
							}
						],
						"body": {
							"mode": "raw",
							"raw": "{\n\t\"username\":\"admin\",\n\t\"password\":\"password\"\n}"
						},
						"url": {
							"raw": "http://localhost:8081/login",
							"protocol": "http",
							"host": [
								"localhost"
							],
							"port": "8081",
							"path": [
								"login"
							]
						}
					},
					"response": []
				},
				{
					"name": "user token acesso",
					"request": {
						"method": "POST",
						"header": [
							{
								"key": "Content-Type",
								"name": "Content-Type",
								"value": "application/json",
								"type": "text"
							}
						],
						"body": {
							"mode": "raw",
							"raw": "{\n    \"nome\": \"Jose\",\n    \"email\": \"jose@gmail.com\",\n    \"login\": \"jose\",\n    \"senha\": \"2019\"\n}"
						},
						"url": {
							"raw": "http://localhost:8081/api/user/novo",
							"protocol": "http",
							"host": [
								"localhost"
							],
							"port": "8081",
							"path": [
								"api",
								"user",
								"novo"
							]
						}
					},
					"response": []
				}
			]
		},
		{
			"name": "get/post",
			"item": [
				{
					"name": "TipoContato",
					"item": [
						{
							"name": "todos tipos contatos",
							"request": {
								"method": "GET",
								"header": [],
								"body": {
									"mode": "raw",
									"raw": ""
								},
								"url": {
									"raw": "http://localhost:8081/api/tipocontato/",
									"protocol": "http",
									"host": [
										"localhost"
									],
									"port": "8081",
									"path": [
										"api",
										"tipocontato",
										""
									]
								}
							},
							"response": []
						},
						{
							"name": "novo tipo contato email",
							"request": {
								"method": "POST",
								"header": [
									{
										"key": "Content-Type",
										"name": "Content-Type",
										"value": "application/json",
										"type": "text"
									}
								],
								"body": {
									"mode": "raw",
									"raw": "{\n    \"nome\": \"email\"\n}"
								},
								"url": {
									"raw": "http://localhost:8081/api/tipocontato/novo",
									"protocol": "http",
									"host": [
										"localhost"
									],
									"port": "8081",
									"path": [
										"api",
										"tipocontato",
										"novo"
									]
								}
							},
							"response": []
						},
						{
							"name": "novo tipo contato telefone",
							"request": {
								"method": "POST",
								"header": [
									{
										"key": "Content-Type",
										"name": "Content-Type",
										"value": "application/json",
										"type": "text"
									}
								],
								"body": {
									"mode": "raw",
									"raw": "{\n    \"nome\": \"telefone\"\n}"
								},
								"url": {
									"raw": "http://localhost:8081/api/tipocontato/novo",
									"protocol": "http",
									"host": [
										"localhost"
									],
									"port": "8081",
									"path": [
										"api",
										"tipocontato",
										"novo"
									]
								}
							},
							"response": []
						},
						{
							"name": "novo tipo contato facebook",
							"request": {
								"method": "POST",
								"header": [
									{
										"key": "Content-Type",
										"name": "Content-Type",
										"value": "application/json",
										"type": "text"
									}
								],
								"body": {
									"mode": "raw",
									"raw": "{\n    \"nome\": \"facebook\"\n}"
								},
								"url": {
									"raw": "http://localhost:8081/api/tipocontato/novo",
									"protocol": "http",
									"host": [
										"localhost"
									],
									"port": "8081",
									"path": [
										"api",
										"tipocontato",
										"novo"
									]
								}
							},
							"response": []
						},
						{
							"name": "buscar por nome tipo contato",
							"request": {
								"method": "GET",
								"header": [],
								"body": {
									"mode": "raw",
									"raw": ""
								},
								"url": {
									"raw": "http://localhost:8081/api/tipocontato/buscar/?nome=email",
									"protocol": "http",
									"host": [
										"localhost"
									],
									"port": "8081",
									"path": [
										"api",
										"tipocontato",
										"buscar",
										""
									],
									"query": [
										{
											"key": "nome",
											"value": "email"
										}
									]
								}
							},
							"response": []
						}
					],
					"_postman_isSubFolder": true
				},
				{
					"name": "contato",
					"item": [
						{
							"name": "todos contatos",
							"request": {
								"method": "GET",
								"header": [],
								"body": {
									"mode": "raw",
									"raw": ""
								},
								"url": {
									"raw": "http://localhost:8081/api/contato/",
									"protocol": "http",
									"host": [
										"localhost"
									],
									"port": "8081",
									"path": [
										"api",
										"contato",
										""
									]
								}
							},
							"response": []
						},
						{
							"name": "novo contato email",
							"request": {
								"method": "POST",
								"header": [
									{
										"key": "Content-Type",
										"name": "Content-Type",
										"value": "application/json",
										"type": "text"
									}
								],
								"body": {
									"mode": "raw",
									"raw": "{\n\t\"valor\":\"meu@gmail.com\",\n\t\"tipoContato\":{\n\t\t\"id\":\"1\"\n\t}\n}"
								},
								"url": {
									"raw": "http://localhost:8081/api/contato/novo",
									"protocol": "http",
									"host": [
										"localhost"
									],
									"port": "8081",
									"path": [
										"api",
										"contato",
										"novo"
									]
								}
							},
							"response": []
						},
						{
							"name": "novo contato telefone",
							"request": {
								"method": "POST",
								"header": [
									{
										"key": "Content-Type",
										"name": "Content-Type",
										"value": "application/json",
										"type": "text"
									}
								],
								"body": {
									"mode": "raw",
									"raw": "{\n\t\"valor\":\"4444444\",\n\t\"tipoContato\":{\n\t\t\"id\":\"2\"\n\t}\n}"
								},
								"url": {
									"raw": "http://localhost:8081/api/contato/novo",
									"protocol": "http",
									"host": [
										"localhost"
									],
									"port": "8081",
									"path": [
										"api",
										"contato",
										"novo"
									]
								}
							},
							"response": []
						},
						{
							"name": "novo contato telefone 2",
							"request": {
								"method": "POST",
								"header": [
									{
										"key": "Content-Type",
										"name": "Content-Type",
										"value": "application/json",
										"type": "text"
									}
								],
								"body": {
									"mode": "raw",
									"raw": "{\n\t\"valor\":\"1111\",\n\t\"tipoContato\":{\n\t\t\"id\":\"2\"\n\t}\n}"
								},
								"url": {
									"raw": "http://localhost:8081/api/contato/novo",
									"protocol": "http",
									"host": [
										"localhost"
									],
									"port": "8081",
									"path": [
										"api",
										"contato",
										"novo"
									]
								}
							},
							"response": []
						},
						{
							"name": "bucar contato por valor",
							"request": {
								"method": "GET",
								"header": [],
								"body": {
									"mode": "raw",
									"raw": ""
								},
								"url": {
									"raw": "http://localhost:8081/api/contato/buscarcontato/546337376673",
									"protocol": "http",
									"host": [
										"localhost"
									],
									"port": "8081",
									"path": [
										"api",
										"contato",
										"buscarcontato",
										"546337376673"
									]
								}
							},
							"response": []
						},
						{
							"name": "bucar contato por tipo contato",
							"protocolProfileBehavior": {
								"disableBodyPruning": true
							},
							"request": {
								"method": "GET",
								"header": [
									{
										"key": "Content-Type",
										"name": "Content-Type",
										"value": "application/json",
										"type": "text"
									}
								],
								"body": {
									"mode": "raw",
									"raw": "{\n    \"id\": 1\n}"
								},
								"url": {
									"raw": "http://localhost:8081/api/contato/buscarcontatos/tipodecontato",
									"protocol": "http",
									"host": [
										"localhost"
									],
									"port": "8081",
									"path": [
										"api",
										"contato",
										"buscarcontatos",
										"tipodecontato"
									]
								}
							},
							"response": []
						}
					],
					"_postman_isSubFolder": true
				},
				{
					"name": "espaco",
					"item": [
						{
							"name": " novo espaco",
							"request": {
								"method": "POST",
								"header": [
									{
										"key": "Content-Type",
										"name": "Content-Type",
										"value": "application/json",
										"type": "text"
									}
								],
								"body": {
									"mode": "raw",
									"raw": "{\n\t\"nome\":\"sala vip\",\n\t\"qtdPessoa\":10,\n\t\"valor\":15.58\n}"
								},
								"url": {
									"raw": "http://localhost:8081/api/espaco/novo",
									"protocol": "http",
									"host": [
										"localhost"
									],
									"port": "8081",
									"path": [
										"api",
										"espaco",
										"novo"
									]
								}
							},
							"response": []
						}
					],
					"event": [
						{
							"listen": "prerequest",
							"script": {
								"id": "961cf984-9c29-4975-8801-31276dc18748",
								"type": "text/javascript",
								"exec": [
									""
								]
							}
						},
						{
							"listen": "test",
							"script": {
								"id": "691aba2e-edd2-4a23-932c-97af7bb30587",
								"type": "text/javascript",
								"exec": [
									""
								]
							}
						}
					],
					"_postman_isSubFolder": true
				},
				{
					"name": "contratacao",
					"item": [
						{
							"name": "todas as contratacoes",
							"request": {
								"method": "GET",
								"header": [],
								"body": {
									"mode": "raw",
									"raw": ""
								},
								"url": {
									"raw": "http://localhost:8081/api/contratacao/",
									"protocol": "http",
									"host": [
										"localhost"
									],
									"port": "8081",
									"path": [
										"api",
										"contratacao",
										""
									]
								}
							},
							"response": []
						},
						{
							"name": "nova contratacao",
							"request": {
								"method": "POST",
								"header": [
									{
										"key": "Content-Type",
										"name": "Content-Type",
										"value": "application/json",
										"type": "text"
									}
								],
								"body": {
									"mode": "raw",
									"raw": "{\n    \"tipoContratacao\": \"SEMANA\",\n    \"quantidade\": 10,\n    \"desconto\": 0,\n    \"prazo\": 10,\n    \"cliente\": {\n        \"nome\": \"Cliente 3\",\n        \"cpf\": \"1555211\",\n        \"dataNascimento\": \"30/10/2005\"\n    },\n    \"espaco\": {\n        \"nome\": \"sala vip\",\n        \"qtdPessoa\": 10,\n        \"valor\": 15.58\n    }\n}"
								},
								"url": {
									"raw": "http://localhost:8081/api/contratacao/novo",
									"protocol": "http",
									"host": [
										"localhost"
									],
									"port": "8081",
									"path": [
										"api",
										"contratacao",
										"novo"
									]
								}
							},
							"response": []
						},
						{
							"name": "nova contratacao Copy",
							"request": {
								"method": "POST",
								"header": [
									{
										"key": "Content-Type",
										"name": "Content-Type",
										"value": "application/json",
										"type": "text"
									}
								],
								"body": {
									"mode": "raw",
									"raw": "{\n    \"tipoContratacao\": \"SEMANA\",\n    \"quantidade\": 10,\n    \"desconto\": 0,\n    \"prazo\": 10,\n    \"cliente\": {\n        \"id\": 1\n    },\n    \"espaco\": {\n        \"id\": 1\n    }\n}"
								},
								"url": {
									"raw": "http://localhost:8081/api/contratacao/novo",
									"protocol": "http",
									"host": [
										"localhost"
									],
									"port": "8081",
									"path": [
										"api",
										"contratacao",
										"novo"
									]
								}
							},
							"response": []
						}
					],
					"_postman_isSubFolder": true
				},
				{
					"name": "cliente",
					"item": [
						{
							"name": "novo cliente",
							"request": {
								"method": "POST",
								"header": [
									{
										"key": "Content-Type",
										"name": "Content-Type",
										"type": "text",
										"value": "application/json"
									}
								],
								"body": {
									"mode": "raw",
									"raw": "{\n    \"nome\": \"Cliente 2\",\n    \"cpf\": \"122211\",\n    \"dataNascimento\": \"30/10/2000\",\n    \"contatos\": [\n        {\n            \"id\": 1\n        },\n        {\n            \"id\": 2\n        }\n    ]\n}"
								},
								"url": {
									"raw": "http://localhost:8081/api/cliente/novo",
									"protocol": "http",
									"host": [
										"localhost"
									],
									"port": "8081",
									"path": [
										"api",
										"cliente",
										"novo"
									]
								}
							},
							"response": []
						},
						{
							"name": "novo cliente",
							"request": {
								"method": "POST",
								"header": [
									{
										"key": "Content-Type",
										"name": "Content-Type",
										"type": "text",
										"value": "application/json"
									}
								],
								"body": {
									"mode": "raw",
									"raw": "{\n    \"nome\": \"Cliente 3\",\n    \"cpf\": \"1555211\",\n    \"dataNascimento\": \"30/10/2005\",\n    \"contatos\": [\n        {\n            \"id\": 1\n        },\n        {\n            \"id\": 2\n        }\n        \n    ]\n}"
								},
								"url": {
									"raw": "http://localhost:8081/api/cliente/novo",
									"protocol": "http",
									"host": [
										"localhost"
									],
									"port": "8081",
									"path": [
										"api",
										"cliente",
										"novo"
									]
								}
							},
							"response": []
						},
						{
							"name": "todos clientes",
							"protocolProfileBehavior": {
								"disableBodyPruning": true
							},
							"request": {
								"method": "GET",
								"header": [
									{
										"key": "Content-Type",
										"name": "Content-Type",
										"type": "text",
										"value": "application/json"
									}
								],
								"body": {
									"mode": "raw",
									"raw": "{\n\t\"nome\":\"Cliente 1\"\n\n}"
								},
								"url": {
									"raw": "http://localhost:8081/api/cliente/",
									"protocol": "http",
									"host": [
										"localhost"
									],
									"port": "8081",
									"path": [
										"api",
										"cliente",
										""
									]
								}
							},
							"response": []
						},
						{
							"name": "todos clientes",
							"protocolProfileBehavior": {
								"disableBodyPruning": true
							},
							"request": {
								"method": "GET",
								"header": [
									{
										"key": "Content-Type",
										"name": "Content-Type",
										"type": "text",
										"value": "application/json"
									}
								],
								"body": {
									"mode": "raw",
									"raw": "{\n\t\"nome\":\"Cliente 1\"\n\n}"
								},
								"url": {
									"raw": "http://localhost:8081/api/cliente/",
									"protocol": "http",
									"host": [
										"localhost"
									],
									"port": "8081",
									"path": [
										"api",
										"cliente",
										""
									]
								}
							},
							"response": []
						},
						{
							"name": "buscar contato por cliente",
							"protocolProfileBehavior": {
								"disableBodyPruning": true
							},
							"request": {
								"method": "GET",
								"header": [
									{
										"key": "Content-Type",
										"name": "Content-Type",
										"type": "text",
										"value": "application/json"
									}
								],
								"body": {
									"mode": "raw",
									"raw": "[\n    {\n        \"id\": 2\n    }\n]"
								},
								"url": {
									"raw": "http://localhost:8081/api/contato/buscarcontatos/porclientes",
									"protocol": "http",
									"host": [
										"localhost"
									],
									"port": "8081",
									"path": [
										"api",
										"contato",
										"buscarcontatos",
										"porclientes"
									]
								}
							},
							"response": []
						}
					],
					"_postman_isSubFolder": true
				},
				{
					"name": "pagamento",
					"item": [
						{
							"name": "novo pagamento contratacao",
							"request": {
								"method": "POST",
								"header": [
									{
										"key": "Content-Type",
										"name": "Content-Type",
										"value": "application/json",
										"type": "text"
									}
								],
								"body": {
									"mode": "raw",
									"raw": "{\n    \"tipoPagamento\": \"DEBITO\",\n    \"clientePacote\": null,\n    \"contratacao\": {\n        \"tipoContratacao\": \"SEMANA\",\n        \"quantidade\": 10,\n        \"desconto\": 0,\n        \"prazo\": 10,\n        \"cliente\": {\n            \"nome\": \"Cliente 3\",\n            \"cpf\": \"1555211\",\n            \"dataNascimento\": \"30/10/2005\"\n        },\n        \"espaco\": {\n            \"nome\": \"sala vip\",\n            \"qtdPessoa\": 10,\n            \"valor\": 15.58\n        },\n        \"pagamento\": []\n    }\n}"
								},
								"url": {
									"raw": "http://localhost:8081/api/pagamento/novo",
									"protocol": "http",
									"host": [
										"localhost"
									],
									"port": "8081",
									"path": [
										"api",
										"pagamento",
										"novo"
									]
								}
							},
							"response": []
						},
						{
							"name": "todos os pagamentos",
							"request": {
								"method": "GET",
								"header": [],
								"body": {
									"mode": "raw",
									"raw": ""
								},
								"url": {
									"raw": "http://localhost:8081/api/pagamento/",
									"protocol": "http",
									"host": [
										"localhost"
									],
									"port": "8081",
									"path": [
										"api",
										"pagamento",
										""
									]
								}
							},
							"response": []
						},
						{
							"name": "novo pagamento cliente pacote",
							"request": {
								"method": "POST",
								"header": [
									{
										"key": "Content-Type",
										"name": "Content-Type",
										"type": "text",
										"value": "application/json"
									}
								],
								"body": {
									"mode": "raw",
									"raw": "{\n    \"tipoPagamento\": \"DEBITO\",\n    \"clientePacote\": {\n        \"quantidade\": 10,\n        \"pacote\": {\n            \"valor\": 100,\n            \"clientePacotes\": [],\n            \"espacoPacotes\": []\n        },\n        \"cliente\": {\n            \"id\":1\n        },\n        \"pagamentos\": []\n    },\n    \"contratacao\": null\n}"
								},
								"url": {
									"raw": "http://localhost:8081/api/pagamento/novo",
									"protocol": "http",
									"host": [
										"localhost"
									],
									"port": "8081",
									"path": [
										"api",
										"pagamento",
										"novo"
									]
								}
							},
							"response": []
						},
						{
							"name": "novo pagamento contratacao Copy",
							"request": {
								"method": "POST",
								"header": [
									{
										"key": "Content-Type",
										"name": "Content-Type",
										"value": "application/json",
										"type": "text"
									}
								],
								"body": {
									"mode": "raw",
									"raw": "{\n    \"tipoPagamento\": \"DEBITO\",\n    \"clientePacote\": {},\n    \"contratacao\": {\n        \"tipoContratacao\": \"SEMANA\",\n        \"quantidade\": 40,\n        \"desconto\": 0,\n        \"prazo\": 30,\n        \"cliente\": {\n            \"id\":1\n        },\n        \"espaco\": {\n            \"id\":1\n        },\n        \"pagamento\": []\n    }\n}"
								},
								"url": {
									"raw": "http://localhost:8081/api/pagamento/novo",
									"protocol": "http",
									"host": [
										"localhost"
									],
									"port": "8081",
									"path": [
										"api",
										"pagamento",
										"novo"
									]
								}
							},
							"response": []
						}
					],
					"_postman_isSubFolder": true
				},
				{
					"name": "ClientePacote",
					"item": [
						{
							"name": "novo cliente pacote",
							"request": {
								"method": "POST",
								"header": [
									{
										"key": "Content-Type",
										"name": "Content-Type",
										"value": "application/json",
										"type": "text"
									}
								],
								"body": {
									"mode": "raw",
									"raw": "{\n    \"quantidade\": 10,\n    \"pacote\": {\n        \"valor\": 110,\n        \"clientePacotes\": [],\n        \"espacoPacotes\": []\n    },\n    \"cliente\": {\n        \"nome\": \"Feliz da Vida\",\n        \"cpf\": \"12333211\",\n        \"dataNascimento\": \"23/12/2000\",\n        \"contatos\": [],\n        \"contratacoes\": [],\n        \"clientePacotes\": []\n    },\n    \"pagamentos\": []\n}"
								},
								"url": {
									"raw": "http://localhost:8081/api/clientepacote/novo",
									"protocol": "http",
									"host": [
										"localhost"
									],
									"port": "8081",
									"path": [
										"api",
										"clientepacote",
										"novo"
									]
								}
							},
							"response": []
						},
						{
							"name": "todos clientes pacote",
							"protocolProfileBehavior": {
								"disableBodyPruning": true
							},
							"request": {
								"method": "GET",
								"header": [
									{
										"key": "Content-Type",
										"name": "Content-Type",
										"type": "text",
										"value": "application/json"
									}
								],
								"body": {
									"mode": "raw",
									"raw": ""
								},
								"url": {
									"raw": "http://localhost:8081/api/clientepacote/",
									"protocol": "http",
									"host": [
										"localhost"
									],
									"port": "8081",
									"path": [
										"api",
										"clientepacote",
										""
									]
								}
							},
							"response": []
						},
						{
							"name": "novo cliente pacote 2",
							"request": {
								"method": "POST",
								"header": [
									{
										"key": "Content-Type",
										"name": "Content-Type",
										"type": "text",
										"value": "application/json"
									}
								],
								"body": {
									"mode": "raw",
									"raw": "{\n    \"quantidade\": 5,\n    \"pacote\": {\n        \"valor\": 50,\n        \"clientePacotes\": [],\n        \"espacoPacotes\": []\n    },\n    \"cliente\": {\n        \"nome\": \"João Antonio Silva\",\n        \"cpf\": \"12333311\",\n        \"dataNascimento\": \"23/12/1985\",\n        \"contatos\": [],\n        \"contratacoes\": [],\n        \"clientePacotes\": []\n    },\n    \"pagamentos\": []\n}"
								},
								"url": {
									"raw": "http://localhost:8081/api/clientepacote/novo",
									"protocol": "http",
									"host": [
										"localhost"
									],
									"port": "8081",
									"path": [
										"api",
										"clientepacote",
										"novo"
									]
								}
							},
							"response": []
						}
					],
					"_postman_isSubFolder": true
				},
				{
					"name": "pacote",
					"item": [
						{
							"name": "todos os pacotes",
							"request": {
								"method": "GET",
								"header": [],
								"body": {
									"mode": "raw",
									"raw": ""
								},
								"url": {
									"raw": "http://localhost:8081/api/pacote/",
									"protocol": "http",
									"host": [
										"localhost"
									],
									"port": "8081",
									"path": [
										"api",
										"pacote",
										""
									]
								}
							},
							"response": []
						},
						{
							"name": "novo pacote",
							"request": {
								"method": "POST",
								"header": [
									{
										"key": "Content-Type",
										"name": "Content-Type",
										"value": "application/json",
										"type": "text"
									}
								],
								"body": {
									"mode": "raw",
									"raw": "{\n    \"valor\": 100,\n    \"clientePacotes\": [],\n    \"espacoPacotes\": []\n}"
								},
								"url": {
									"raw": "http://localhost:8081/api/pacote/novo",
									"protocol": "http",
									"host": [
										"localhost"
									],
									"port": "8081",
									"path": [
										"api",
										"pacote",
										"novo"
									]
								}
							},
							"response": []
						}
					],
					"_postman_isSubFolder": true
				},
				{
					"name": "EspacoPacote",
					"item": [
						{
							"name": "novo espaco pacote",
							"request": {
								"method": "POST",
								"header": [
									{
										"key": "Content-Type",
										"name": "Content-Type",
										"value": "application/json",
										"type": "text"
									}
								],
								"body": {
									"mode": "raw",
									"raw": "{\n    \"quantidade\": 10,\n    \"prazo\": 30,\n    \"tipoContratacao\": \"SEMANA\",\n    \"pacote\": {\n        \"valor\": 100,\n        \"clientePacotes\": [],\n        \"espacoPacotes\": []\n    },\n    \"espaco\": {\n        \"nome\": \"sala esapco pacote\",\n        \"qtdPessoa\": 10,\n        \"valor\": 15.58\n    }\n}"
								},
								"url": {
									"raw": "http://localhost:8081/api/espacopacote/novo",
									"protocol": "http",
									"host": [
										"localhost"
									],
									"port": "8081",
									"path": [
										"api",
										"espacopacote",
										"novo"
									]
								}
							},
							"response": []
						},
						{
							"name": "todos espaco pacote",
							"protocolProfileBehavior": {
								"disableBodyPruning": true
							},
							"request": {
								"method": "GET",
								"header": [
									{
										"key": "Content-Type",
										"name": "Content-Type",
										"value": "application/json",
										"type": "text"
									}
								],
								"body": {
									"mode": "raw",
									"raw": ""
								},
								"url": {
									"raw": "http://localhost:8081/api/espacopacote/",
									"protocol": "http",
									"host": [
										"localhost"
									],
									"port": "8081",
									"path": [
										"api",
										"espacopacote",
										""
									]
								}
							},
							"response": []
						}
					],
					"_postman_isSubFolder": true
				},
				{
					"name": "acesso",
					"item": [
						{
							"name": "novo acesso",
							"request": {
								"method": "POST",
								"header": [
									{
										"key": "Content-Type",
										"name": "Content-Type",
										"value": "application/json",
										"type": "text"
									}
								],
								"body": {
									"mode": "raw",
									"raw": "{\n    \"isEntrada\": true,\n    \"data\": \"2016-11-09T10:30\",\n    \"saldoCliente\": {\n        \"saldoClienteId\": {\n            \"idEspaco\": 1,\n            \"idCliente\": 1\n        },\n        \"tipoContratacao\": \"HORA\",\n        \"quantidade\": 5,\n        \"vencimento\": \"2016-11-09T10:30\"\n    }\n}"
								},
								"url": {
									"raw": "http://localhost:8081/api/acesso/novo",
									"protocol": "http",
									"host": [
										"localhost"
									],
									"port": "8081",
									"path": [
										"api",
										"acesso",
										"novo"
									]
								}
							},
							"response": []
						},
						{
							"name": "todos os acessos",
							"protocolProfileBehavior": {
								"disableBodyPruning": true
							},
							"request": {
								"method": "GET",
								"header": [
									{
										"key": "Content-Type",
										"name": "Content-Type",
										"value": "application/json",
										"type": "text"
									}
								],
								"body": {
									"mode": "raw",
									"raw": ""
								},
								"url": {
									"raw": "http://localhost:8081/api/acesso/",
									"protocol": "http",
									"host": [
										"localhost"
									],
									"port": "8081",
									"path": [
										"api",
										"acesso",
										""
									]
								}
							},
							"response": []
						}
					],
					"_postman_isSubFolder": true
				},
				{
					"name": "SaldoCliente",
					"item": [
						{
							"name": "todo os saldo do cliente",
							"protocolProfileBehavior": {
								"disableBodyPruning": true
							},
							"request": {
								"method": "GET",
								"header": [
									{
										"key": "Content-Type",
										"name": "Content-Type",
										"value": "application/json",
										"type": "text"
									}
								],
								"body": {
									"mode": "raw",
									"raw": "{\n    \"saldoClienteId\": {\n        \"idEspaco\": 1,\n        \"idCliente\": 1\n    }\n}"
								},
								"url": {
									"raw": "http://localhost:8081/api/saldocliente/",
									"protocol": "http",
									"host": [
										"localhost"
									],
									"port": "8081",
									"path": [
										"api",
										"saldocliente",
										""
									]
								}
							},
							"response": []
						},
						{
							"name": "novo pagamento contratacao",
							"request": {
								"method": "POST",
								"header": [
									{
										"key": "Content-Type",
										"name": "Content-Type",
										"value": "application/json",
										"type": "text"
									}
								],
								"body": {
									"mode": "raw",
									"raw": "{\n    \"tipoPagamento\": \"DEBITO\",\n    \"clientePacote\": null,\n    \"contratacao\": {\n        \"tipoContratacao\": \"SEMANA\",\n        \"quantidade\": 100,\n        \"desconto\": 0.1,\n        \"prazo\": 10,\n        \"cliente\": {\n            \"nome\": \"Maria Fernandes\",\n            \"cpf\": \"234.765.897-34\",\n            \"dataNascimento\": \"15/10/1970\"\n        },\n        \"espaco\": {\n            \"nome\": \"sala de reuniões III\",\n            \"qtdPessoa\": 21,\n            \"valor\": 143.76\n        },\n        \"pagamento\": []\n    }\n}"
								},
								"url": {
									"raw": "http://localhost:8081/api/pagamento/novo",
									"protocol": "http",
									"host": [
										"localhost"
									],
									"port": "8081",
									"path": [
										"api",
										"pagamento",
										"novo"
									]
								}
							},
							"response": []
						}
					],
					"_postman_isSubFolder": true
				}
			]
		},
		{
			"name": "request methods",
			"item": []
		}
	],
	"auth": {
		"type": "bearer"
	},
	"event": [
		{
			"listen": "prerequest",
			"script": {
				"id": "20cdc3b0-5ae7-4184-9bf4-43ecfa60f14f",
				"type": "text/javascript",
				"exec": [
					""
				]
			}
		},
		{
			"listen": "test",
			"script": {
				"id": "76233caf-39d2-48e4-adcb-73d1ba16e3e5",
				"type": "text/javascript",
				"exec": [
					""
				]
			}
		}
	]
}